$comment
	File created using the following command:
		vcd file temp_seq.msim.vcd -direction
$end
$date
	Sat May 09 11:03:42 2020
$end
$version
	ModelSim Version 10.5b
$end
$timescale
	1ps
$end

$scope module temp_seq_vhd_vec_tst $end
$var wire 1 ! clock $end
$var wire 1 " estado [2] $end
$var wire 1 # estado [1] $end
$var wire 1 $ estado [0] $end
$var wire 1 % NOTURNO $end
$var wire 1 & PpA $end
$var wire 1 ' PpB $end
$var wire 1 ( PvA $end
$var wire 1 ) PvB $end
$var wire 1 * reset $end
$var wire 1 + trigger [1] $end
$var wire 1 , trigger [0] $end

$scope module i1 $end
$var wire 1 - gnd $end
$var wire 1 . vcc $end
$var wire 1 / unknown $end
$var wire 1 0 devoe $end
$var wire 1 1 devclrn $end
$var wire 1 2 devpor $end
$var wire 1 3 ww_devoe $end
$var wire 1 4 ww_devclrn $end
$var wire 1 5 ww_devpor $end
$var wire 1 6 ww_clock $end
$var wire 1 7 ww_reset $end
$var wire 1 8 ww_PvA $end
$var wire 1 9 ww_PvB $end
$var wire 1 : ww_PpA $end
$var wire 1 ; ww_PpB $end
$var wire 1 < ww_NOTURNO $end
$var wire 1 = ww_trigger [1] $end
$var wire 1 > ww_trigger [0] $end
$var wire 1 ? ww_estado [2] $end
$var wire 1 @ ww_estado [1] $end
$var wire 1 A ww_estado [0] $end
$var wire 1 B \trigger[0]~input_o\ $end
$var wire 1 C \trigger[1]~input_o\ $end
$var wire 1 D \PvB~input_o\ $end
$var wire 1 E \NOTURNO~input_o\ $end
$var wire 1 F \PvA~input_o\ $end
$var wire 1 G \reset~input_o\ $end
$var wire 1 H \PpA~input_o\ $end
$var wire 1 I \clock~input_o\ $end
$var wire 1 J \PpB~input_o\ $end
$var wire 1 K \~QUARTUS_CREATED_GND~I_combout\ $end
$upscope $end
$upscope $end
$enddefinitions $end
#0
$dumpvars
0!
0%
0&
0'
1(
1)
0*
0-
1.
x/
10
11
12
13
14
15
06
07
18
19
0:
0;
0<
0B
0C
1D
0E
1F
0G
0H
0I
0J
xK
0+
0,
0=
0>
0?
0@
0A
0"
0#
0$
$end
#5000
1!
16
1I
#10000
0!
06
0I
#15000
1!
16
1I
#20000
0!
06
0I
#25000
1!
16
1I
#30000
0!
06
0I
#35000
1!
16
1I
#40000
0!
06
0I
#45000
1!
16
1I
#50000
0!
06
0I
#55000
1!
16
1I
#60000
0!
06
0I
#65000
1!
16
1I
#70000
0!
06
0I
#75000
1!
16
1I
#80000
0!
06
0I
#85000
1!
16
1I
#90000
0!
06
0I
#95000
1!
16
1I
#100000
0!
06
0I
#105000
1!
16
1I
#110000
0!
06
0I
#115000
1!
16
1I
#120000
0!
06
0I
#125000
1!
16
1I
#130000
0!
06
0I
#135000
1!
16
1I
#140000
0!
06
0I
#145000
1!
16
1I
#150000
0!
06
0I
#155000
1!
16
1I
#160000
0!
06
0I
#165000
1!
16
1I
#170000
0!
06
0I
#175000
1!
16
1I
#180000
0!
06
0I
#185000
1!
16
1I
#190000
0!
06
0I
#195000
1!
16
1I
#200000
0!
06
0I
#205000
1!
16
1I
#210000
0!
06
0I
#215000
1!
16
1I
#220000
0!
06
0I
#225000
1!
16
1I
#230000
0!
06
0I
#235000
1!
16
1I
#240000
0!
06
0I
#245000
1!
16
1I
#250000
0!
06
0I
#255000
1!
16
1I
#260000
0!
06
0I
#265000
1!
16
1I
#270000
0!
06
0I
#275000
1!
16
1I
#280000
0!
06
0I
#285000
1!
16
1I
#290000
0!
06
0I
#295000
1!
16
1I
#300000
0!
06
0I
#305000
1!
16
1I
#310000
0!
06
0I
#315000
1!
16
1I
#320000
0!
06
0I
#325000
1!
16
1I
#330000
0!
06
0I
#335000
1!
16
1I
#340000
0!
06
0I
#345000
1!
16
1I
#350000
0!
06
0I
#355000
1!
16
1I
#360000
0!
06
0I
#365000
1!
16
1I
#370000
0!
06
0I
#375000
1!
16
1I
#380000
0!
06
0I
#385000
1!
16
1I
#390000
0!
06
0I
#395000
1!
16
1I
#400000
0!
06
0I
#405000
1!
16
1I
#410000
0!
06
0I
#415000
1!
16
1I
#420000
0!
1,
06
1>
1B
0I
#425000
1!
16
1I
#430000
0!
06
0I
#435000
1!
16
1I
#440000
0!
06
0I
#445000
1!
16
1I
#450000
0!
06
0I
#455000
1!
16
1I
#460000
0!
06
0I
#465000
1!
16
1I
#470000
0!
06
0I
#475000
1!
16
1I
#480000
0!
06
0I
#485000
1!
16
1I
#490000
0!
06
0I
#495000
1!
16
1I
#500000
0!
06
0I
#505000
1!
16
1I
#510000
0!
06
0I
#515000
1!
16
1I
#520000
0!
06
0I
#525000
1!
16
1I
#530000
0!
06
0I
#535000
1!
16
1I
#540000
0!
06
0I
#545000
1!
16
1I
#550000
0!
06
0I
#555000
1!
16
1I
#560000
0!
06
0I
#565000
1!
16
1I
#570000
0!
06
0I
#575000
1!
16
1I
#580000
0!
06
0I
#585000
1!
16
1I
#590000
0!
06
0I
#595000
1!
16
1I
#600000
0!
06
0I
#605000
1!
16
1I
#610000
0!
06
0I
#615000
1!
16
1I
#620000
0!
06
0I
#625000
1!
16
1I
#630000
0!
06
0I
#635000
1!
16
1I
#640000
0!
06
0I
#645000
1!
16
1I
#650000
0!
06
0I
#655000
1!
16
1I
#660000
0!
06
0I
#665000
1!
16
1I
#670000
0!
06
0I
#675000
1!
16
1I
#680000
0!
06
0I
#685000
1!
16
1I
#690000
0!
06
0I
#695000
1!
16
1I
#700000
0!
06
0I
#705000
1!
16
1I
#710000
0!
06
0I
#715000
1!
16
1I
#720000
0!
06
0I
#725000
1!
16
1I
#730000
0!
06
0I
#735000
1!
16
1I
#740000
0!
06
0I
#745000
1!
16
1I
#750000
0!
06
0I
#755000
1!
16
1I
#760000
0!
06
0I
#765000
1!
16
1I
#770000
0!
06
0I
#775000
1!
16
1I
#780000
0!
06
0I
#785000
1!
16
1I
#790000
0!
06
0I
#795000
1!
16
1I
#800000
0!
06
0I
#805000
1!
16
1I
#810000
0!
06
0I
#815000
1!
16
1I
#820000
0!
06
0I
#825000
1!
16
1I
#830000
0!
06
0I
#835000
1!
16
1I
#840000
0!
06
0I
#845000
1!
16
1I
#850000
0!
06
0I
#855000
1!
16
1I
#860000
0!
06
0I
#865000
1!
16
1I
#870000
0!
06
0I
#875000
1!
16
1I
#880000
0!
06
0I
#885000
1!
16
1I
#890000
0!
06
0I
#895000
1!
16
1I
#900000
0!
06
0I
#905000
1!
16
1I
#910000
0!
06
0I
#915000
1!
16
1I
#920000
0!
06
0I
#925000
1!
16
1I
#930000
0!
06
0I
#935000
1!
16
1I
#940000
0!
06
0I
#945000
1!
16
1I
#950000
0!
06
0I
#955000
1!
16
1I
#960000
0!
06
0I
#965000
1!
16
1I
#970000
0!
06
0I
#975000
1!
16
1I
#980000
0!
0,
06
0>
0B
0I
#985000
1!
16
1I
#990000
0!
06
0I
#995000
1!
16
1I
#1000000
